…
3. **Metadata Dataset**
	- **Path**: `PanelAppData_genes_combined_meta_names.csv`
	- **Contains fields**:
		- `panel id`
		- `panel name`

4. **Metadata Counts**
	- **Path**: `PanelAppData_genes_combined_meta_variable_counts.csv`
	- **Description**: Contains metadata counts for each variable
		- **Contains**:

```plaintext
# A tibble: 52 × 2
Column_Name           Unique_Counts
<chr>                         <int>
1 id                              447
2 entity_type                       1
3 Gene                           6280
4 confidence_level                  4
5 penetrance                        4
6 mode_of_pathogenicity            12
7 publications                  13102
8 evidence                       3653
9 phenotypes                    21636
10 mode_of_inheritance              15
# ℹ 42 more rows
```
…
